EESchema Schematic File Version 2
LIBS:power
LIBS:device
LIBS:transistors
LIBS:conn
LIBS:linear
LIBS:regul
LIBS:74xx
LIBS:cmos4000
LIBS:adc-dac
LIBS:memory
LIBS:xilinx
LIBS:microcontrollers
LIBS:dsp
LIBS:microchip
LIBS:analog_switches
LIBS:motorola
LIBS:texas
LIBS:intel
LIBS:audio
LIBS:interface
LIBS:digital-audio
LIBS:philips
LIBS:display
LIBS:cypress
LIBS:siliconi
LIBS:opto
LIBS:atmel
LIBS:contrib
LIBS:haum_kicad
LIBS:valves
LIBS:DMX_Out-cache
EELAYER 25 0
EELAYER END
$Descr A4 11693 8268
encoding utf-8
Sheet 1 1
Title ""
Date ""
Rev ""
Comp ""
Comment1 ""
Comment2 ""
Comment3 ""
Comment4 ""
$EndDescr
$Comp
L SP3485EP U2
U 1 1 563896FB
P 6150 3700
F 0 "U2" H 5850 4050 50  0000 L CNN
F 1 "SP3485EP" H 6250 4050 50  0000 L CNN
F 2 "Sockets_DIP:DIP-8__300_ELL" H 6150 3700 50  0000 C CIN
F 3 "" H 6150 3700 60  0000 C CNN
	1    6150 3700
	1    0    0    -1  
$EndComp
$Comp
L 6N137 IC2
U 1 1 5638C083
P 4450 3650
F 0 "IC2" H 4240 3880 40  0000 C CNN
F 1 "6N137" H 4610 3410 40  0000 C CNN
F 2 "Sockets_DIP:DIP-8__300_ELL" H 4250 3420 30  0000 C CIN
F 3 "" H 4450 3650 60  0000 C CNN
	1    4450 3650
	1    0    0    -1  
$EndComp
$Comp
L B0505S U1
U 1 1 5638C104
P 5650 2200
F 0 "U1" H 5450 2450 60  0000 C CNN
F 1 "B0505S" H 5550 1950 60  0000 C CNN
F 2 "lib_haum:B0505S" H 5650 2200 60  0001 C CNN
F 3 "" H 5650 2200 60  0000 C CNN
	1    5650 2200
	1    0    0    -1  
$EndComp
Wire Wire Line
	4800 3700 5150 3700
Wire Wire Line
	5150 3700 5150 3900
Wire Wire Line
	5150 3900 5750 3900
$Comp
L R R4
U 1 1 5638C266
P 5150 3550
F 0 "R4" V 5230 3550 50  0000 C CNN
F 1 "4k7" V 5150 3550 50  0000 C CNN
F 2 "Resistors_ThroughHole:Resistor_Horizontal_RM10mm" V 5080 3550 30  0001 C CNN
F 3 "" H 5150 3550 30  0000 C CNN
	1    5150 3550
	1    0    0    -1  
$EndComp
$Comp
L R R2
U 1 1 5638C2E5
P 3750 3750
F 0 "R2" V 3830 3750 50  0000 C CNN
F 1 "330" V 3750 3750 50  0000 C CNN
F 2 "Resistors_ThroughHole:Resistor_Horizontal_RM10mm" V 3680 3750 30  0001 C CNN
F 3 "" H 3750 3750 30  0000 C CNN
	1    3750 3750
	0    1    1    0   
$EndComp
$Comp
L C C2
U 1 1 5638C3B7
P 6400 2200
F 0 "C2" H 6425 2300 50  0000 L CNN
F 1 "100nF" H 6425 2100 50  0000 L CNN
F 2 "Capacitors_ThroughHole:C_Rect_L7_W2.5_P5" H 6438 2050 30  0001 C CNN
F 3 "" H 6400 2200 60  0000 C CNN
	1    6400 2200
	1    0    0    -1  
$EndComp
$Comp
L C C3
U 1 1 5638C448
P 6700 2200
F 0 "C3" H 6725 2300 50  0000 L CNN
F 1 "100nF" H 6725 2100 50  0000 L CNN
F 2 "Capacitors_ThroughHole:C_Rect_L7_W2.5_P5" H 6738 2050 30  0001 C CNN
F 3 "" H 6700 2200 60  0000 C CNN
	1    6700 2200
	1    0    0    -1  
$EndComp
$Comp
L C C1
U 1 1 5638C4CD
P 4900 2200
F 0 "C1" H 4925 2300 50  0000 L CNN
F 1 "100nF" H 4925 2100 50  0000 L CNN
F 2 "Capacitors_ThroughHole:C_Rect_L7_W2.5_P5" H 4938 2050 30  0001 C CNN
F 3 "" H 4900 2200 60  0000 C CNN
	1    4900 2200
	1    0    0    -1  
$EndComp
$Comp
L CONN_01X03 P4
U 1 1 5638C532
P 7500 3700
F 0 "P4" H 7500 3900 50  0000 C CNN
F 1 "CONN_01X03" V 7600 3700 50  0000 C CNN
F 2 "Pin_Headers:Pin_Header_Straight_1x03" H 7500 3700 60  0001 C CNN
F 3 "" H 7500 3700 60  0000 C CNN
	1    7500 3700
	1    0    0    1   
$EndComp
$Comp
L 6N137 IC1
U 1 1 5638C632
P 4450 3000
F 0 "IC1" H 4240 3230 40  0000 C CNN
F 1 "6N137" H 4610 2760 40  0000 C CNN
F 2 "Sockets_DIP:DIP-8__300_ELL" H 4250 2770 30  0000 C CIN
F 3 "" H 4450 3000 60  0000 C CNN
	1    4450 3000
	-1   0    0    -1  
$EndComp
Wire Wire Line
	5750 3500 5550 3500
$Comp
L R R3
U 1 1 5638C898
P 4950 3100
F 0 "R3" V 5030 3100 50  0000 C CNN
F 1 "470" V 4950 3100 50  0000 C CNN
F 2 "Resistors_ThroughHole:Resistor_Horizontal_RM10mm" V 4880 3100 30  0001 C CNN
F 3 "" H 4950 3100 30  0000 C CNN
	1    4950 3100
	0    1    1    0   
$EndComp
Wire Wire Line
	4800 3500 4800 3300
Wire Wire Line
	4800 3300 5400 3300
Text Label 6150 3100 0    60   ~ 0
+5Vext
Wire Wire Line
	6150 2900 6150 3300
Wire Wire Line
	5750 3600 5750 3800
$Comp
L CONN_01X03 P2
U 1 1 5638CAE4
P 5350 4400
F 0 "P2" H 5350 4600 50  0000 C CNN
F 1 "CONN_01X03" V 5450 4400 50  0000 C CNN
F 2 "Pin_Headers:Pin_Header_Straight_1x03" H 5350 4400 60  0001 C CNN
F 3 "" H 5350 4400 60  0000 C CNN
	1    5350 4400
	-1   0    0    1   
$EndComp
Wire Wire Line
	5750 3700 5700 3700
Wire Wire Line
	5700 3700 5700 4400
Wire Wire Line
	5700 4400 5550 4400
Connection ~ 5750 3700
Wire Wire Line
	5550 4300 5550 3700
Wire Wire Line
	5550 3700 5400 3700
Wire Wire Line
	5400 3700 5400 3300
Wire Wire Line
	5550 4500 6150 4500
Wire Wire Line
	6150 4500 6150 4100
Wire Wire Line
	4800 4100 7300 4100
Wire Wire Line
	7300 4100 7300 3800
$Comp
L R R5
U 1 1 5638CE5E
P 6900 3350
F 0 "R5" V 6980 3350 50  0000 C CNN
F 1 "120" V 6900 3350 50  0000 C CNN
F 2 "Resistors_ThroughHole:Resistor_Horizontal_RM10mm" V 6830 3350 30  0001 C CNN
F 3 "" H 6900 3350 30  0000 C CNN
	1    6900 3350
	1    0    0    -1  
$EndComp
$Comp
L CONN_01X02 P3
U 1 1 5638CEE1
P 6950 2900
F 0 "P3" H 6950 3050 50  0000 C CNN
F 1 "CONN_01X02" V 7050 2900 50  0000 C CNN
F 2 "Pin_Headers:Pin_Header_Straight_1x02" H 6950 2900 60  0001 C CNN
F 3 "" H 6950 2900 60  0000 C CNN
	1    6950 2900
	0    -1   -1   0   
$EndComp
Wire Wire Line
	6900 3500 6900 3600
Connection ~ 6900 3600
Wire Wire Line
	6900 3100 6900 3200
Text Label 6150 4500 0    60   ~ 0
GNDext
Wire Wire Line
	5150 2900 5150 3400
Connection ~ 5150 3300
Wire Wire Line
	4800 2900 6150 2900
Wire Wire Line
	5100 3100 5550 3100
Wire Wire Line
	5550 3100 5550 3500
Connection ~ 5150 2900
Wire Wire Line
	6100 2300 6100 2350
Wire Wire Line
	6100 2350 6700 2350
Connection ~ 6400 2350
Wire Wire Line
	6100 2100 6100 2050
Wire Wire Line
	6100 2050 6700 2050
Connection ~ 6400 2050
Text Label 6400 2050 0    60   ~ 0
+5Vext
Text Label 6100 2350 0    60   ~ 0
GNDext
Text Notes 2400 3650 0    60   ~ 0
+5V\n+3V3\nTXD\nRXD\nGND
$Comp
L CONN_01X05 P1
U 1 1 5638E229
P 2750 3400
F 0 "P1" H 2750 3700 50  0000 C CNN
F 1 "CONN_01X05" V 2850 3400 50  0000 C CNN
F 2 "Pin_Headers:Pin_Header_Straight_1x05" H 2750 3400 60  0001 C CNN
F 3 "" H 2750 3400 60  0000 C CNN
	1    2750 3400
	-1   0    0    1   
$EndComp
Wire Wire Line
	4100 3150 4000 3150
Wire Wire Line
	4000 3150 4000 3600
Wire Wire Line
	4000 3600 2950 3600
Wire Wire Line
	2950 2050 2950 3200
Wire Wire Line
	2950 2850 4100 2850
Wire Wire Line
	2950 3500 3900 3500
Wire Wire Line
	3900 3500 3900 3050
Wire Wire Line
	3900 3050 4100 3050
$Comp
L R R1
U 1 1 5638E35B
P 3750 3050
F 0 "R1" V 3830 3050 50  0000 C CNN
F 1 "3k3" V 3750 3050 50  0000 C CNN
F 2 "Resistors_ThroughHole:Resistor_Horizontal_RM10mm" V 3680 3050 30  0001 C CNN
F 3 "" H 3750 3050 30  0000 C CNN
	1    3750 3050
	0    1    1    0   
$EndComp
Wire Wire Line
	2950 3300 3050 3300
Wire Wire Line
	3050 3300 3050 3050
Wire Wire Line
	3050 3050 3600 3050
Wire Wire Line
	3500 3050 3500 3350
Wire Wire Line
	3500 3350 4100 3350
Wire Wire Line
	4100 3350 4100 3550
Connection ~ 3500 3050
Wire Wire Line
	4100 3750 3900 3750
Wire Wire Line
	3600 3750 3350 3750
Wire Wire Line
	3350 3750 3350 3400
Wire Wire Line
	3350 3400 2950 3400
Wire Wire Line
	5200 2350 5200 2300
Wire Wire Line
	3200 2350 5200 2350
Wire Wire Line
	2950 2050 5200 2050
Wire Wire Line
	5200 2050 5200 2100
Connection ~ 2950 2850
Connection ~ 4900 2050
Wire Wire Line
	3200 3600 3200 2350
Connection ~ 4900 2350
Connection ~ 3200 3600
Wire Wire Line
	4800 3800 4800 4100
Connection ~ 6150 4100
NoConn ~ 4100 2950
NoConn ~ 4800 3600
NoConn ~ 9050 5900
Wire Wire Line
	6550 3600 7300 3600
Wire Wire Line
	7000 3100 7000 3800
Wire Wire Line
	7000 3800 6550 3800
Wire Wire Line
	7300 3700 7000 3700
Connection ~ 7000 3700
Text Notes 4550 4500 0    60   ~ 0
3-2 DMX OUT\n1-2 DMX IN
$EndSCHEMATC
