%!PS-Adobe-3.0
%%Creator: PCBNEW
%%CreationDate: Tue Nov 10 21:03:50 2015
%%Title: /home/jerome/Documents/kicad/DMX_Out/DMX_Out-B.Cu.ps
%%Pages: 1
%%PageOrder: Ascend
%%BoundingBox: 0 0 596 842
%%DocumentMedia: A4 595 842 0 () ()
%%Orientation: Landscape
%%EndComments
%%BeginProlog
/line { newpath moveto lineto stroke } bind def
/cir0 { newpath 0 360 arc stroke } bind def
/cir1 { newpath 0 360 arc gsave fill grestore stroke } bind def
/cir2 { newpath 0 360 arc gsave fill grestore stroke } bind def
/arc0 { newpath arc stroke } bind def
/arc1 { newpath 4 index 4 index moveto arc closepath gsave fill
    grestore stroke } bind def
/arc2 { newpath 4 index 4 index moveto arc closepath gsave fill
    grestore stroke } bind def
/poly0 { stroke } bind def
/poly1 { closepath gsave fill grestore stroke } bind def
/poly2 { closepath gsave fill grestore stroke } bind def
/rect0 { rectstroke } bind def
/rect1 { rectfill } bind def
/rect2 { rectfill } bind def
/linemode0 { 0 setlinecap 0 setlinejoin 0 setlinewidth } bind def
/linemode1 { 1 setlinecap 1 setlinejoin } bind def
/dashedline { [200] 100 setdash } bind def
/solidline { [] 0 setdash } bind def
/phantomshow { moveto
    /KicadFont findfont 0.000001 scalefont setfont
    show } bind def
/textshow { gsave
    findfont exch scalefont setfont concat 1 scale 0 0 moveto show
    } bind def
/reencodefont {
  findfont dup length dict begin
  { 1 index /FID ne
    { def }
    { pop pop } ifelse
  } forall
  /Encoding ISOLatin1Encoding def
  currentdict
  end } bind def
/KicadFont /Helvetica reencodefont definefont pop
/KicadFont-Bold /Helvetica-Bold reencodefont definefont pop
/KicadFont-Oblique /Helvetica-Oblique reencodefont definefont pop
/KicadFont-BoldOblique /Helvetica-BoldOblique reencodefont definefont pop
%%EndProlog
%%Page: 1 1
%%BeginPageSetup
gsave
0.0072 0.0072 scale
linemode1
82680 0 translate 90 rotate
39.3701 setlinewidth
%%EndPageSetup
0 0 0 setrgbcolor
0 0 0 setrgbcolor
118.11 setlinewidth
newpath
55767.2 40937.6 moveto
55176.6 40937.6 lineto
55176.6 40797 lineto
55204.7 40712.6 lineto
55261 40656.4 lineto
55317.2 40628.3 lineto
55429.7 40600.1 lineto
55514.1 40600.1 lineto
55626.5 40628.3 lineto
55682.8 40656.4 lineto
55739 40712.6 lineto
55767.2 40797 lineto
55767.2 40937.6 lineto
stroke
newpath
55767.2 40347 moveto
55176.6 40347 lineto
55598.4 40150.2 lineto
55176.6 39953.3 lineto
55767.2 39953.3 lineto
stroke
newpath
55176.6 39728.4 moveto
55767.2 39334.7 lineto
stroke
newpath
55176.6 39334.7 moveto
55767.2 39728.4 lineto
stroke
newpath
55823.4 39250.3 moveto
55823.4 38800.4 lineto
stroke
newpath
55767.2 38659.8 moveto
55176.6 38659.8 lineto
stroke
newpath
55148.5 37956.7 moveto
55907.8 38462.9 lineto
stroke
newpath
55176.6 37647.4 moveto
55176.6 37534.9 lineto
55204.7 37478.7 lineto
55261 37422.4 lineto
55373.5 37394.3 lineto
55570.3 37394.3 lineto
55682.8 37422.4 lineto
55739 37478.7 lineto
55767.2 37534.9 lineto
55767.2 37647.4 lineto
55739 37703.6 lineto
55682.8 37759.9 lineto
55570.3 37788 lineto
55373.5 37788 lineto
55261 37759.9 lineto
55204.7 37703.6 lineto
55176.6 37647.4 lineto
stroke
0 0 0 setrgbcolor
39.3701 setlinewidth
newpath
75000 45180 moveto
75000 31680 lineto
stroke
0 0 0 setrgbcolor
newpath
50500 45180 moveto
75000 45180 lineto
stroke
0 0 0 setrgbcolor
newpath
50500 31680 moveto
50500 45180 lineto
stroke
0 0 0 setrgbcolor
newpath
75000 31680 moveto
50500 31680 lineto
stroke
0 0 0 setrgbcolor
0 setlinewidth
newpath
60600 43280 moveto
60600 44080 lineto
61400 44080 lineto
61400 43280 lineto
60600 43280 lineto
poly1
0 0 0 setrgbcolor
62968.5 43680 393.5 cir1
39.3701 setlinewidth
0 0 0 setrgbcolor
0 setlinewidth
newpath
69900 38780 moveto
69100 38780 lineto
69100 39580 lineto
69900 39580 lineto
69900 38780 lineto
poly1
0 0 0 setrgbcolor
69500 41148.5 393.5 cir1
39.3701 setlinewidth
0 0 0 setrgbcolor
0 setlinewidth
newpath
68400 39080 moveto
68400 38280 lineto
67600 38280 lineto
67600 39080 lineto
68400 39080 lineto
poly1
0 0 0 setrgbcolor
66031.5 38680 393.5 cir1
39.3701 setlinewidth
0 0 0 setrgbcolor
0 setlinewidth
newpath
59950 39870 moveto
59050 39870 lineto
59050 40490 lineto
59950 40490 lineto
59950 39870 lineto
poly1
0 0 0 setrgbcolor
620 setlinewidth
newpath
59360 41180 moveto
59640 41180 lineto
stroke
0 0 0 setrgbcolor
newpath
59360 42180 moveto
59640 42180 lineto
stroke
0 0 0 setrgbcolor
newpath
59360 43180 moveto
59640 43180 lineto
stroke
0 0 0 setrgbcolor
newpath
56360 43180 moveto
56640 43180 lineto
stroke
0 0 0 setrgbcolor
newpath
56360 42180 moveto
56640 42180 lineto
stroke
0 0 0 setrgbcolor
newpath
56360 41180 moveto
56640 41180 lineto
stroke
0 0 0 setrgbcolor
newpath
56360 40180 moveto
56640 40180 lineto
stroke
0 0 0 setrgbcolor
0 setlinewidth
newpath
56050 36990 moveto
56950 36990 lineto
56950 36370 lineto
56050 36370 lineto
56050 36990 lineto
poly1
0 0 0 setrgbcolor
620 setlinewidth
newpath
56640 35680 moveto
56360 35680 lineto
stroke
0 0 0 setrgbcolor
newpath
56640 34680 moveto
56360 34680 lineto
stroke
0 0 0 setrgbcolor
newpath
56640 33680 moveto
56360 33680 lineto
stroke
0 0 0 setrgbcolor
newpath
59640 33680 moveto
59360 33680 lineto
stroke
0 0 0 setrgbcolor
newpath
59640 34680 moveto
59360 34680 lineto
stroke
0 0 0 setrgbcolor
newpath
59640 35680 moveto
59360 35680 lineto
stroke
0 0 0 setrgbcolor
newpath
59640 36680 moveto
59360 36680 lineto
stroke
0 0 0 setrgbcolor
0 setlinewidth
newpath
51100 40340 moveto
51100 41020 lineto
51900 41020 lineto
51900 40340 lineto
51100 40340 lineto
poly1
0 0 0 setrgbcolor
680 setlinewidth
newpath
51440 39680 moveto
51560 39680 lineto
stroke
0 0 0 setrgbcolor
newpath
51440 38680 moveto
51560 38680 lineto
stroke
0 0 0 setrgbcolor
newpath
51440 37680 moveto
51560 37680 lineto
stroke
0 0 0 setrgbcolor
newpath
51440 36680 moveto
51560 36680 lineto
stroke
0 0 0 setrgbcolor
0 setlinewidth
newpath
62660 39580 moveto
63340 39580 lineto
63340 38780 lineto
62660 38780 lineto
62660 39580 lineto
poly1
0 0 0 setrgbcolor
680 setlinewidth
newpath
62000 39240 moveto
62000 39120 lineto
stroke
0 0 0 setrgbcolor
newpath
61000 39240 moveto
61000 39120 lineto
stroke
0 0 0 setrgbcolor
0 setlinewidth
newpath
71100 35780 moveto
71100 36580 lineto
71900 36580 lineto
71900 35780 lineto
71100 35780 lineto
poly1
0 0 0 setrgbcolor
800 setlinewidth
newpath
71500 35180 moveto
71500 35180 lineto
stroke
0 0 0 setrgbcolor
0 setlinewidth
newpath
69100 35840 moveto
69100 36520 lineto
69900 36520 lineto
69900 35840 lineto
69100 35840 lineto
poly1
0 0 0 setrgbcolor
680 setlinewidth
newpath
69440 35180 moveto
69560 35180 lineto
stroke
0 0 0 setrgbcolor
newpath
69440 34180 moveto
69560 34180 lineto
stroke
0 0 0 setrgbcolor
0 setlinewidth
53500 34680 393.5 cir1
39.3701 setlinewidth
0 0 0 setrgbcolor
0 setlinewidth
53500 38680 393.5 cir1
39.3701 setlinewidth
0 0 0 setrgbcolor
0 setlinewidth
64500 37180 393.5 cir1
39.3701 setlinewidth
0 0 0 setrgbcolor
0 setlinewidth
64500 41180 393.5 cir1
39.3701 setlinewidth
0 0 0 setrgbcolor
0 setlinewidth
61000 37180 393.5 cir1
39.3701 setlinewidth
0 0 0 setrgbcolor
0 setlinewidth
61000 33180 393.5 cir1
39.3701 setlinewidth
0 0 0 setrgbcolor
0 setlinewidth
73000 37180 393.5 cir1
39.3701 setlinewidth
0 0 0 setrgbcolor
0 setlinewidth
73000 33180 393.5 cir1
39.3701 setlinewidth
0 0 0 setrgbcolor
0 setlinewidth
67500 42680 393.5 cir1
39.3701 setlinewidth
0 0 0 setrgbcolor
0 setlinewidth
68500 42680 393.5 cir1
39.3701 setlinewidth
0 0 0 setrgbcolor
0 setlinewidth
69500 42680 393.5 cir1
39.3701 setlinewidth
0 0 0 setrgbcolor
0 setlinewidth
70500 42680 393.5 cir1
39.3701 setlinewidth
0 0 0 setrgbcolor
0 setlinewidth
newpath
64050 36490 moveto
64950 36490 lineto
64950 35870 lineto
64050 35870 lineto
64050 36490 lineto
poly1
0 0 0 setrgbcolor
620 setlinewidth
newpath
64640 35180 moveto
64360 35180 lineto
stroke
0 0 0 setrgbcolor
newpath
64640 34180 moveto
64360 34180 lineto
stroke
0 0 0 setrgbcolor
newpath
64640 33180 moveto
64360 33180 lineto
stroke
0 0 0 setrgbcolor
newpath
67640 33180 moveto
67360 33180 lineto
stroke
0 0 0 setrgbcolor
newpath
67640 34180 moveto
67360 34180 lineto
stroke
0 0 0 setrgbcolor
newpath
67640 35180 moveto
67360 35180 lineto
stroke
0 0 0 setrgbcolor
newpath
67640 36180 moveto
67360 36180 lineto
stroke
0 0 0 setrgbcolor
0 setlinewidth
54500 39680 393.5 cir1
39.3701 setlinewidth
0 0 0 setrgbcolor
0 setlinewidth
54500 35680 393.5 cir1
39.3701 setlinewidth
0 0 0 setrgbcolor
0 setlinewidth
73000 43180 800 cir1
39.3701 setlinewidth
0 0 0 setrgbcolor
0 setlinewidth
52500 43180 800 cir1
39.3701 setlinewidth
0 0 0 setrgbcolor
314.961 setlinewidth
newpath
61000 43680 moveto
62500 42180 lineto
stroke
0 0 0 setrgbcolor
newpath
68500 42180 moveto
68500 42680 lineto
stroke
0 0 0 setrgbcolor
newpath
68000 41680 moveto
68500 42180 lineto
stroke
0 0 0 setrgbcolor
newpath
66500 41680 moveto
68000 41680 lineto
stroke
0 0 0 setrgbcolor
newpath
66000 42180 moveto
66500 41680 lineto
stroke
0 0 0 setrgbcolor
newpath
62500 42180 moveto
66000 42180 lineto
stroke
0 0 0 setrgbcolor
newpath
57500 40180 moveto
57500 43680 lineto
stroke
0 0 0 setrgbcolor
newpath
60500 44180 moveto
61000 43680 lineto
stroke
0 0 0 setrgbcolor
newpath
58000 44180 moveto
60500 44180 lineto
stroke
0 0 0 setrgbcolor
newpath
57500 43680 moveto
58000 44180 lineto
stroke
0 0 0 setrgbcolor
newpath
56500 40180 moveto
57500 40180 lineto
stroke
0 0 0 setrgbcolor
newpath
57500 39680 moveto
57500 40180 lineto
stroke
0 0 0 setrgbcolor
newpath
51500 34680 moveto
53500 32680 lineto
stroke
0 0 0 setrgbcolor
newpath
57500 33180 moveto
57000 32680 lineto
stroke
0 0 0 setrgbcolor
newpath
57000 32680 moveto
53500 32680 lineto
stroke
0 0 0 setrgbcolor
newpath
57500 39680 moveto
57500 33180 lineto
stroke
0 0 0 setrgbcolor
newpath
51500 34680 moveto
51500 36680 lineto
stroke
0 0 0 setrgbcolor
newpath
57000 44180 moveto
57500 44680 lineto
stroke
0 0 0 setrgbcolor
newpath
56500 43180 moveto
57000 43680 lineto
stroke
0 0 0 setrgbcolor
newpath
57000 43680 moveto
57000 44180 lineto
stroke
0 0 0 setrgbcolor
newpath
66000 43680 moveto
67000 43680 lineto
stroke
0 0 0 setrgbcolor
newpath
62968.5 43680 moveto
66000 43680 lineto
stroke
0 0 0 setrgbcolor
newpath
67500 43180 moveto
67500 42680 lineto
stroke
0 0 0 setrgbcolor
newpath
67000 43680 moveto
67500 43180 lineto
stroke
0 0 0 setrgbcolor
newpath
62968.5 44211.5 moveto
62968.5 43680 lineto
stroke
0 0 0 setrgbcolor
newpath
62500 44680 moveto
62968.5 44211.5 lineto
stroke
0 0 0 setrgbcolor
newpath
57500 44680 moveto
62500 44680 lineto
stroke
0 0 0 setrgbcolor
newpath
56500 43180 moveto
54500 43180 lineto
stroke
0 0 0 setrgbcolor
newpath
53500 41180 moveto
53500 42180 lineto
stroke
0 0 0 setrgbcolor
newpath
54000 42680 moveto
54500 43180 lineto
stroke
0 0 0 setrgbcolor
newpath
53000 40680 moveto
51500 40680 lineto
stroke
0 0 0 setrgbcolor
newpath
53500 42180 moveto
54000 42680 lineto
stroke
0 0 0 setrgbcolor
newpath
53000 40680 moveto
53500 41180 lineto
stroke
0 0 0 setrgbcolor
newpath
61000 40180 moveto
67000 40180 lineto
stroke
0 0 0 setrgbcolor
newpath
67500 39680 moveto
67500 39180 lineto
stroke
0 0 0 setrgbcolor
newpath
67000 40180 moveto
67500 39680 lineto
stroke
0 0 0 setrgbcolor
newpath
67500 36180 moveto
67500 37180 lineto
stroke
0 0 0 setrgbcolor
newpath
67500 38180 moveto
67500 37180 lineto
stroke
0 0 0 setrgbcolor
newpath
67500 38180 moveto
67500 38680 lineto
stroke
0 0 0 setrgbcolor
newpath
70500 42680 moveto
70500 39680 lineto
stroke
0 0 0 setrgbcolor
newpath
70000 39180 moveto
69500 39180 lineto
stroke
0 0 0 setrgbcolor
newpath
70500 39680 moveto
70000 39180 lineto
stroke
0 0 0 setrgbcolor
newpath
68000 38680 moveto
68000 39180 lineto
stroke
0 0 0 setrgbcolor
newpath
68000 38680 moveto
67500 38680 lineto
stroke
0 0 0 setrgbcolor
newpath
69500 39180 moveto
68000 39180 lineto
stroke
0 0 0 setrgbcolor
newpath
68000 39180 moveto
67500 39180 lineto
stroke
0 0 0 setrgbcolor
newpath
67500 38680 moveto
67500 39180 lineto
stroke
0 0 0 setrgbcolor
newpath
59500 41180 moveto
60500 41180 lineto
stroke
0 0 0 setrgbcolor
newpath
60500 41180 moveto
61000 40680 lineto
stroke
0 0 0 setrgbcolor
newpath
59500 36680 moveto
60500 36680 lineto
stroke
0 0 0 setrgbcolor
newpath
60500 36680 moveto
61000 37180 lineto
stroke
0 0 0 setrgbcolor
newpath
61000 39180 moveto
61000 37180 lineto
stroke
0 0 0 setrgbcolor
newpath
61000 39180 moveto
61000 40180 lineto
stroke
0 0 0 setrgbcolor
newpath
61000 40180 moveto
61000 40680 lineto
stroke
0 0 0 setrgbcolor
newpath
65500 39180 moveto
65531.5 39180 lineto
stroke
0 0 0 setrgbcolor
newpath
65531.5 39180 moveto
66031.5 38680 lineto
stroke
0 0 0 setrgbcolor
newpath
66031.5 38680 moveto
66031.5 33648.5 lineto
stroke
0 0 0 setrgbcolor
newpath
66031.5 33648.5 moveto
66500 33180 lineto
stroke
0 0 0 setrgbcolor
newpath
66500 33180 moveto
67500 33180 lineto
stroke
0 0 0 setrgbcolor
newpath
63000 39180 moveto
65500 39180 lineto
stroke
0 0 0 setrgbcolor
newpath
69500 41148.5 moveto
69468.5 41148.5 lineto
stroke
0 0 0 setrgbcolor
newpath
66000 38711.5 moveto
66031.5 38680 lineto
stroke
0 0 0 setrgbcolor
newpath
69500 37680 moveto
70000 38180 lineto
stroke
0 0 0 setrgbcolor
newpath
69500 36180 moveto
69500 37680 lineto
stroke
0 0 0 setrgbcolor
newpath
70000 38180 moveto
71500 38180 lineto
stroke
0 0 0 setrgbcolor
newpath
69500 43180 moveto
70000 43680 lineto
stroke
0 0 0 setrgbcolor
newpath
67500 32180 moveto
73500 32180 lineto
stroke
0 0 0 setrgbcolor
newpath
73500 32180 moveto
74500 33180 lineto
stroke
0 0 0 setrgbcolor
newpath
74500 33180 moveto
74500 37180 lineto
stroke
0 0 0 setrgbcolor
newpath
73500 38180 moveto
71500 38180 lineto
stroke
0 0 0 setrgbcolor
newpath
74500 37180 moveto
73500 38180 lineto
stroke
0 0 0 setrgbcolor
newpath
70000 43680 moveto
71000 43680 lineto
stroke
0 0 0 setrgbcolor
newpath
71000 43680 moveto
71500 43180 lineto
stroke
0 0 0 setrgbcolor
newpath
71500 43180 moveto
71500 38180 lineto
stroke
0 0 0 setrgbcolor
newpath
69500 42680 moveto
69500 43180 lineto
stroke
0 0 0 setrgbcolor
newpath
67500 33180 moveto
67500 32180 lineto
stroke
0 0 0 setrgbcolor
newpath
69500 41148.5 moveto
69500 42680 lineto
stroke
0 0 0 setrgbcolor
newpath
69500 41180 moveto
69500 41148.5 lineto
stroke
0 0 0 setrgbcolor
newpath
66031.5 38648.5 moveto
66031.5 38680 lineto
stroke
0 0 0 setrgbcolor
newpath
59500 33680 moveto
59500 32680 lineto
stroke
0 0 0 setrgbcolor
newpath
60000 32180 moveto
67500 32180 lineto
stroke
0 0 0 setrgbcolor
newpath
59500 32680 moveto
60000 32180 lineto
stroke
0 0 0 setrgbcolor
newpath
66031.5 38680 moveto
66000 38680 lineto
stroke
0 0 0 setrgbcolor
newpath
66000 38680 moveto
66031.5 38680 lineto
stroke
0 0 0 setrgbcolor
newpath
66000 38680 moveto
66031.5 38680 lineto
stroke
0 0 0 setrgbcolor
newpath
69468.5 41180 moveto
69500 41148.5 lineto
stroke
0 0 0 setrgbcolor
newpath
59500 42180 moveto
61000 42180 lineto
stroke
0 0 0 setrgbcolor
newpath
62000 41180 moveto
64500 41180 lineto
stroke
0 0 0 setrgbcolor
newpath
61000 42180 moveto
62000 41180 lineto
stroke
0 0 0 setrgbcolor
newpath
54500 39680 moveto
54500 41680 lineto
stroke
0 0 0 setrgbcolor
newpath
55000 42180 moveto
56500 42180 lineto
stroke
0 0 0 setrgbcolor
newpath
54500 41680 moveto
55000 42180 lineto
stroke
0 0 0 setrgbcolor
newpath
51500 39680 moveto
54500 39680 lineto
stroke
0 0 0 setrgbcolor
newpath
51500 37680 moveto
54000 37680 lineto
stroke
0 0 0 setrgbcolor
newpath
54500 37180 moveto
54500 35680 lineto
stroke
0 0 0 setrgbcolor
newpath
54000 37680 moveto
54500 37180 lineto
stroke
0 0 0 setrgbcolor
newpath
54500 35680 moveto
56500 35680 lineto
stroke
0 0 0 setrgbcolor
newpath
56500 34680 moveto
53500 34680 lineto
stroke
0 0 0 setrgbcolor
newpath
60500 34680 moveto
61000 34180 lineto
stroke
0 0 0 setrgbcolor
newpath
64500 33180 moveto
61000 33180 lineto
stroke
0 0 0 setrgbcolor
newpath
61000 33180 moveto
61000 34180 lineto
stroke
0 0 0 setrgbcolor
newpath
60500 34680 moveto
59500 34680 lineto
stroke
0 0 0 setrgbcolor
newpath
51500 38680 moveto
53500 38680 lineto
stroke
0 0 0 setrgbcolor
newpath
64500 35180 moveto
64500 34180 lineto
stroke
0 0 0 setrgbcolor
newpath
62000 39180 moveto
62000 35680 lineto
stroke
0 0 0 setrgbcolor
newpath
62500 35180 moveto
64500 35180 lineto
stroke
0 0 0 setrgbcolor
newpath
62000 35680 moveto
62500 35180 lineto
stroke
0 0 0 setrgbcolor
newpath
71500 36180 moveto
71500 36680 lineto
stroke
0 0 0 setrgbcolor
newpath
71500 36680 moveto
72000 37180 lineto
stroke
0 0 0 setrgbcolor
newpath
72000 37180 moveto
73000 37180 lineto
stroke
0 0 0 setrgbcolor
newpath
69500 35180 moveto
71500 35180 lineto
stroke
0 0 0 setrgbcolor
newpath
67500 35180 moveto
69500 35180 lineto
stroke
0 0 0 setrgbcolor
newpath
67500 34180 moveto
69500 34180 lineto
stroke
0 0 0 setrgbcolor
newpath
69500 34180 moveto
70500 33180 lineto
stroke
0 0 0 setrgbcolor
newpath
70500 33180 moveto
73000 33180 lineto
stroke
0 0 0 setrgbcolor
newpath
64500 37180 moveto
64500 36180 lineto
stroke
0 0 0 setrgbcolor
200 setlinewidth
newpath
56964.4 44215.6 moveto
56800.2 43969.9 lineto
56760.4 43769.9 lineto
56690 43790 lineto
56550 43790 lineto
56550 43230 lineto
56557.9 43230 lineto
56557.9 43130 lineto
56550 43130 lineto
56550 43122.1 lineto
56450 43122.1 lineto
56450 43130 lineto
55827.3 43130 lineto
55767.4 43035.5 lineto
55777.3 42992.8 lineto
55808 42937.5 lineto
55000 42937.5 lineto
54710.1 42879.8 lineto
54464.4 42715.6 lineto
53964.4 42215.6 lineto
53800.2 41969.9 lineto
53742.5 41680 lineto
53742.5 40437.5 lineto
52200 40437.5 lineto
52200 40555 lineto
52125 40630 lineto
51550 40630 lineto
51550 40622.1 lineto
51450 40622.1 lineto
51450 40630 lineto
51442.1 40630 lineto
51442.1 40730 lineto
51450 40730 lineto
51450 41245 lineto
51550 41245 lineto
51550 40730 lineto
52125 40730 lineto
52200 40805 lineto
52200 41079.7 lineto
52154.3 41189.9 lineto
52069.9 41274.3 lineto
51959.7 41320 lineto
51625 41320 lineto
51550 41245 lineto
51450 41245 lineto
51375 41320 lineto
51119.7 41320 lineto
51119.7 42854.5 lineto
51312.4 42388 lineto
51705.9 41993.8 lineto
52220.3 41780.2 lineto
52777.3 41779.8 lineto
53292 41992.4 lineto
53686.2 42385.9 lineto
53899.8 42900.3 lineto
53900.1 43324.5 lineto
55767.4 43324.5 lineto
55827.3 43230 lineto
56450 43230 lineto
56450 43790 lineto
56310 43790 lineto
56080.4 43724.4 lineto
55893.3 43576 lineto
55777.3 43367.2 lineto
55767.4 43324.5 lineto
53900.1 43324.5 lineto
53900.2 43457.3 lineto
53687.6 43972 lineto
53294.1 44366.2 lineto
52826.5 44560.3 lineto
57309.1 44560.3 lineto
56964.4 44215.6 lineto
poly1
0 0 0 setrgbcolor
newpath
72208 44367.6 moveto
71813.8 43974.1 lineto
71600.2 43459.7 lineto
71599.8 42902.7 lineto
71812.4 42388 lineto
72205.9 41993.8 lineto
72720.3 41780.2 lineto
73277.3 41779.8 lineto
73792 41992.4 lineto
74186.2 42385.9 lineto
74380.3 42853.5 lineto
74380.3 32299.7 lineto
73471.1 32299.7 lineto
73562 32337.3 lineto
73841.8 32616.5 lineto
73993.3 32981.5 lineto
73993.7 33376.8 lineto
73842.7 33742 lineto
73563.5 34021.8 lineto
73198.5 34173.3 lineto
72803.2 34173.7 lineto
72438 34022.7 lineto
72352.6 33937.5 lineto
70813.8 33937.5 lineto
70506.8 34244.5 lineto
70471.4 34422.5 lineto
70848.7 34422.5 lineto
71097.7 34256.1 lineto
71480.4 34180 lineto
71519.6 34180 lineto
71902.3 34256.1 lineto
72226.7 34472.9 lineto
72443.5 34797.3 lineto
72519.6 35180 lineto
72451.2 35523.9 lineto
72463.6 35542 lineto
72511.8 35780 lineto
72511.8 36307 lineto
72801.5 36186.7 lineto
73196.8 36186.3 lineto
73562 36337.3 lineto
73841.8 36616.5 lineto
73993.3 36981.5 lineto
73993.7 37376.8 lineto
73842.7 37742 lineto
73563.5 38021.8 lineto
73198.5 38173.3 lineto
72803.2 38173.7 lineto
72438 38022.7 lineto
72352.6 37937.5 lineto
72000 37937.5 lineto
71710.1 37879.8 lineto
71464.4 37715.6 lineto
70964.4 37215.6 lineto
70926.6 37159.1 lineto
70877.7 37149.9 lineto
70673.4 37018.5 lineto
70536.4 36818 lineto
70488.2 36580 lineto
70488.2 35937.5 lineto
70200 35937.5 lineto
70200 36055 lineto
70125 36130 lineto
69550 36130 lineto
69550 36122.1 lineto
69450 36122.1 lineto
69450 36130 lineto
68875 36130 lineto
68800 36055 lineto
68800 35937.5 lineto
68522.3 35937.5 lineto
68570.6 36180 lineto
68501.3 36528.2 lineto
68466.9 36579.7 lineto
68800 36579.7 lineto
68800 36305 lineto
68875 36230 lineto
69450 36230 lineto
69450 36745 lineto
69550 36745 lineto
69550 36230 lineto
70125 36230 lineto
70200 36305 lineto
70200 36579.7 lineto
70154.3 36689.9 lineto
70069.9 36774.3 lineto
69959.7 36820 lineto
69625 36820 lineto
69550 36745 lineto
69450 36745 lineto
69375 36820 lineto
69040.3 36820 lineto
68930.1 36774.3 lineto
68845.7 36689.9 lineto
68800 36579.7 lineto
68466.9 36579.7 lineto
68304 36823.5 lineto
68257.5 36854.6 lineto
68257.5 37668.2 lineto
68400 37668.2 lineto
68622.3 37710.1 lineto
68826.6 37841.5 lineto
68963.6 38042 lineto
68993.5 38189.8 lineto
69100 38168.2 lineto
69900 38168.2 lineto
70122.3 38210.1 lineto
70326.6 38341.5 lineto
70463.6 38542 lineto
70476.3 38604.7 lineto
70535.6 38644.4 lineto
71035.6 39144.4 lineto
71199.8 39390.1 lineto
71217.7 39480.2 lineto
71257.5 39680 lineto
71257.5 42032.4 lineto
71341.8 42116.5 lineto
71493.3 42481.5 lineto
71493.7 42876.8 lineto
71342.7 43242 lineto
71063.5 43521.8 lineto
70698.5 43673.3 lineto
70303.2 43673.7 lineto
69938 43522.7 lineto
69744 43329.1 lineto
69616 43377.5 lineto
69340.3 43368.8 lineto
69252.5 43332.4 lineto
69063.5 43521.8 lineto
68698.5 43673.3 lineto
68303.2 43673.7 lineto
68115.5 43596.1 lineto
68035.6 43715.6 lineto
67535.6 44215.6 lineto
67289.9 44379.8 lineto
67000 44437.5 lineto
63681 44437.5 lineto
63668.3 44501.4 lineto
63628.9 44560.3 lineto
72674.5 44560.3 lineto
72208 44367.6 lineto
poly1
newpath
66742.5 39366.2 moveto
66742.5 36854.6 lineto
66696 36823.5 lineto
66498.7 36528.2 lineto
66429.4 36180 lineto
66498.7 35831.8 lineto
66600.1 35680 lineto
66498.7 35528.2 lineto
66429.4 35180 lineto
66498.7 34831.8 lineto
66600.1 34680 lineto
66498.7 34528.2 lineto
66429.4 34180 lineto
66498.7 33831.8 lineto
66696 33536.5 lineto
66823.9 33451.1 lineto
66777.3 33367.2 lineto
66767.4 33324.5 lineto
66827.3 33230 lineto
67450 33230 lineto
67450 33237.9 lineto
67550 33237.9 lineto
67550 33230 lineto
68172.7 33230 lineto
68232.6 33324.5 lineto
68222.7 33367.2 lineto
68192 33422.5 lineto
68894.6 33422.5 lineto
69060.7 33311.6 lineto
69355.9 33252.8 lineto
69964.4 32644.4 lineto
70210.1 32480.2 lineto
70500 32422.5 lineto
72352.4 32422.5 lineto
72436.5 32338.2 lineto
72529.4 32299.7 lineto
64809.8 32299.7 lineto
65008.8 32339.3 lineto
65304 32536.5 lineto
65501.3 32831.8 lineto
65541.8 33035.5 lineto
66767.4 33035.5 lineto
66777.3 32992.8 lineto
66893.3 32784 lineto
67080.4 32635.6 lineto
67310 32570 lineto
67450 32570 lineto
67450 33130 lineto
67550 33130 lineto
67550 32570 lineto
67690 32570 lineto
67919.6 32635.6 lineto
68106.7 32784 lineto
68222.7 32992.8 lineto
68232.6 33035.5 lineto
68172.7 33130 lineto
67550 33130 lineto
67450 33130 lineto
66827.3 33130 lineto
66767.4 33035.5 lineto
65541.8 33035.5 lineto
65570.6 33180 lineto
65501.3 33528.2 lineto
65399.9 33680 lineto
65501.3 33831.8 lineto
65570.6 34180 lineto
65501.3 34528.2 lineto
65399.9 34680 lineto
65501.3 34831.8 lineto
65570.6 35180 lineto
65501.3 35528.2 lineto
65472.3 35571.6 lineto
65513.6 35632 lineto
65561.8 35870 lineto
65561.8 36490 lineto
65519.9 36712.3 lineto
65435.8 36843 lineto
65493.3 36981.5 lineto
65493.7 37376.8 lineto
65342.7 37742 lineto
65063.5 38021.8 lineto
64698.5 38173.3 lineto
64303.2 38173.7 lineto
63938 38022.7 lineto
63658.2 37743.5 lineto
63506.7 37378.5 lineto
63506.3 36983.2 lineto
63564.6 36842.3 lineto
63486.4 36728 lineto
63438.2 36490 lineto
63438.2 35937.5 lineto
62813.8 35937.5 lineto
62757.5 35993.8 lineto
62757.5 38199.1 lineto
65621.3 38199.1 lineto
65657.4 38080 lineto
65915.5 37982.5 lineto
66191.2 37991.2 lineto
66405.6 38080 lineto
66441.7 38199.1 lineto
66031.5 38609.3 lineto
65621.3 38199.1 lineto
62757.5 38199.1 lineto
62757.5 38480 lineto
62875 38480 lineto
62950 38555 lineto
62950 39130 lineto
63050 39130 lineto
63050 38555 lineto
63125 38480 lineto
63399.7 38480 lineto
63509.9 38525.7 lineto
63594.3 38610.1 lineto
63640 38720.3 lineto
63640 38796 lineto
65334 38796 lineto
65342.7 38520.3 lineto
65431.5 38305.9 lineto
65550.6 38269.8 lineto
65960.8 38680 lineto
66102.2 38680 lineto
66512.4 38269.8 lineto
66631.5 38305.9 lineto
66729 38564 lineto
66720.3 38839.7 lineto
66631.5 39054.1 lineto
66512.4 39090.2 lineto
66102.2 38680 lineto
65960.8 38680 lineto
65550.6 39090.2 lineto
65431.5 39054.1 lineto
65334 38796 lineto
63640 38796 lineto
63640 39055 lineto
63565 39130 lineto
63050 39130 lineto
62950 39130 lineto
62942.1 39130 lineto
62942.1 39160.9 lineto
65621.3 39160.9 lineto
66031.5 38750.7 lineto
66441.7 39160.9 lineto
66405.6 39280 lineto
66147.5 39377.5 lineto
65871.8 39368.8 lineto
65657.4 39280 lineto
65621.3 39160.9 lineto
62942.1 39160.9 lineto
62942.1 39230 lineto
62950 39230 lineto
62950 39237.9 lineto
63050 39237.9 lineto
63050 39230 lineto
63565 39230 lineto
63640 39305 lineto
63640 39422.5 lineto
66686.2 39422.5 lineto
66742.5 39366.2 lineto
poly1
newpath
68802.5 41264.5 moveto
68811.2 40988.8 lineto
68900 40774.4 lineto
69019.1 40738.3 lineto
69429.3 41148.5 lineto
69423.7 41154.1 lineto
69494.4 41224.8 lineto
69500 41219.2 lineto
69505.6 41224.8 lineto
69576.3 41154.1 lineto
69570.7 41148.5 lineto
69576.3 41142.9 lineto
69505.6 41072.2 lineto
69500 41077.8 lineto
69089.8 40667.6 lineto
69125.9 40548.5 lineto
69384 40451 lineto
69659.7 40459.7 lineto
69742.5 40494 lineto
69742.5 40191.8 lineto
69100 40191.8 lineto
68877.7 40149.9 lineto
68673.4 40018.5 lineto
68618.1 39937.5 lineto
68206.3 39937.5 lineto
68199.8 39969.9 lineto
68083.8 40143.6 lineto
68035.6 40215.6 lineto
67535.6 40715.6 lineto
67289.9 40879.8 lineto
67075.2 40922.5 lineto
68000 40922.5 lineto
68289.9 40980.2 lineto
68535.6 41144.4 lineto
68891.6 41500.3 lineto
68802.5 41264.5 lineto
poly1
newpath
69506.6 42755.3 moveto
69506.4 42604.6 lineto
69505.6 42603.7 lineto
69500 42609.3 lineto
69494.4 42603.7 lineto
69493.4 42604.7 lineto
69493.6 42755.4 lineto
69494.4 42756.3 lineto
69500 42750.7 lineto
69505.6 42756.3 lineto
69506.6 42755.3 lineto
poly1
1 1 1 setrgbcolor
0 setlinewidth
61000 43680 68.8976 cir1
39.3701 setlinewidth
0 setlinewidth
62968.5 43680 68.8976 cir1
39.3701 setlinewidth
0 setlinewidth
69500 39180 68.8976 cir1
39.3701 setlinewidth
0 setlinewidth
69500 41148.5 68.8976 cir1
39.3701 setlinewidth
0 setlinewidth
68000 38680 68.8976 cir1
39.3701 setlinewidth
0 setlinewidth
66031.5 38680 68.8976 cir1
39.3701 setlinewidth
0 setlinewidth
59500 40180 68.8976 cir1
39.3701 setlinewidth
0 setlinewidth
59500 41180 68.8976 cir1
39.3701 setlinewidth
0 setlinewidth
59500 42180 68.8976 cir1
39.3701 setlinewidth
0 setlinewidth
59500 43180 68.8976 cir1
39.3701 setlinewidth
0 setlinewidth
56500 43180 68.8976 cir1
39.3701 setlinewidth
0 setlinewidth
56500 42180 68.8976 cir1
39.3701 setlinewidth
0 setlinewidth
56500 41180 68.8976 cir1
39.3701 setlinewidth
0 setlinewidth
56500 40180 68.8976 cir1
39.3701 setlinewidth
0 setlinewidth
56500 36680 68.8976 cir1
39.3701 setlinewidth
0 setlinewidth
56500 35680 68.8976 cir1
39.3701 setlinewidth
0 setlinewidth
56500 34680 68.8976 cir1
39.3701 setlinewidth
0 setlinewidth
56500 33680 68.8976 cir1
39.3701 setlinewidth
0 setlinewidth
59500 33680 68.8976 cir1
39.3701 setlinewidth
0 setlinewidth
59500 34680 68.8976 cir1
39.3701 setlinewidth
0 setlinewidth
59500 35680 68.8976 cir1
39.3701 setlinewidth
0 setlinewidth
59500 36680 68.8976 cir1
39.3701 setlinewidth
0 setlinewidth
51500 40680 68.8976 cir1
39.3701 setlinewidth
0 setlinewidth
51500 39680 68.8976 cir1
39.3701 setlinewidth
0 setlinewidth
51500 38680 68.8976 cir1
39.3701 setlinewidth
0 setlinewidth
51500 37680 68.8976 cir1
39.3701 setlinewidth
0 setlinewidth
51500 36680 68.8976 cir1
39.3701 setlinewidth
0 setlinewidth
63000 39180 68.8976 cir1
39.3701 setlinewidth
0 setlinewidth
62000 39180 68.8976 cir1
39.3701 setlinewidth
0 setlinewidth
61000 39180 68.8976 cir1
39.3701 setlinewidth
0 setlinewidth
71500 36180 68.8976 cir1
39.3701 setlinewidth
0 setlinewidth
71500 35180 68.8976 cir1
39.3701 setlinewidth
0 setlinewidth
69500 36180 68.8976 cir1
39.3701 setlinewidth
0 setlinewidth
69500 35180 68.8976 cir1
39.3701 setlinewidth
0 setlinewidth
69500 34180 68.8976 cir1
39.3701 setlinewidth
0 setlinewidth
53500 34680 68.8976 cir1
39.3701 setlinewidth
0 setlinewidth
53500 38680 68.8976 cir1
39.3701 setlinewidth
0 setlinewidth
64500 37180 68.8976 cir1
39.3701 setlinewidth
0 setlinewidth
64500 41180 68.8976 cir1
39.3701 setlinewidth
0 setlinewidth
61000 37180 68.8976 cir1
39.3701 setlinewidth
0 setlinewidth
61000 33180 68.8976 cir1
39.3701 setlinewidth
0 setlinewidth
73000 37180 68.8976 cir1
39.3701 setlinewidth
0 setlinewidth
73000 33180 68.8976 cir1
39.3701 setlinewidth
0 setlinewidth
67500 42680 68.8976 cir1
39.3701 setlinewidth
0 setlinewidth
68500 42680 68.8976 cir1
39.3701 setlinewidth
0 setlinewidth
69500 42680 68.8976 cir1
39.3701 setlinewidth
0 setlinewidth
70500 42680 68.8976 cir1
39.3701 setlinewidth
0 setlinewidth
64500 36180 68.8976 cir1
39.3701 setlinewidth
0 setlinewidth
64500 35180 68.8976 cir1
39.3701 setlinewidth
0 setlinewidth
64500 34180 68.8976 cir1
39.3701 setlinewidth
0 setlinewidth
64500 33180 68.8976 cir1
39.3701 setlinewidth
0 setlinewidth
67500 33180 68.8976 cir1
39.3701 setlinewidth
0 setlinewidth
67500 34180 68.8976 cir1
39.3701 setlinewidth
0 setlinewidth
67500 35180 68.8976 cir1
39.3701 setlinewidth
0 setlinewidth
67500 36180 68.8976 cir1
39.3701 setlinewidth
0 setlinewidth
54500 39680 68.8976 cir1
39.3701 setlinewidth
0 setlinewidth
54500 35680 68.8976 cir1
39.3701 setlinewidth
0 setlinewidth
73000 43180 68.8976 cir1
39.3701 setlinewidth
0 setlinewidth
52500 43180 68.8976 cir1
39.3701 setlinewidth
0 0 0 setrgbcolor
showpage
grestore
%%EOF
