%!PS-Adobe-3.0
%%Creator: PCBNEW
%%CreationDate: Tue Nov 10 21:03:50 2015
%%Title: /home/jerome/Documents/kicad/DMX_Out/DMX_Out-F.SilkS.ps
%%Pages: 1
%%PageOrder: Ascend
%%BoundingBox: 0 0 596 842
%%DocumentMedia: A4 595 842 0 () ()
%%Orientation: Landscape
%%EndComments
%%BeginProlog
/line { newpath moveto lineto stroke } bind def
/cir0 { newpath 0 360 arc stroke } bind def
/cir1 { newpath 0 360 arc gsave fill grestore stroke } bind def
/cir2 { newpath 0 360 arc gsave fill grestore stroke } bind def
/arc0 { newpath arc stroke } bind def
/arc1 { newpath 4 index 4 index moveto arc closepath gsave fill
    grestore stroke } bind def
/arc2 { newpath 4 index 4 index moveto arc closepath gsave fill
    grestore stroke } bind def
/poly0 { stroke } bind def
/poly1 { closepath gsave fill grestore stroke } bind def
/poly2 { closepath gsave fill grestore stroke } bind def
/rect0 { rectstroke } bind def
/rect1 { rectfill } bind def
/rect2 { rectfill } bind def
/linemode0 { 0 setlinecap 0 setlinejoin 0 setlinewidth } bind def
/linemode1 { 1 setlinecap 1 setlinejoin } bind def
/dashedline { [200] 100 setdash } bind def
/solidline { [] 0 setdash } bind def
/phantomshow { moveto
    /KicadFont findfont 0.000001 scalefont setfont
    show } bind def
/textshow { gsave
    findfont exch scalefont setfont concat 1 scale 0 0 moveto show
    } bind def
/reencodefont {
  findfont dup length dict begin
  { 1 index /FID ne
    { def }
    { pop pop } ifelse
  } forall
  /Encoding ISOLatin1Encoding def
  currentdict
  end } bind def
/KicadFont /Helvetica reencodefont definefont pop
/KicadFont-Bold /Helvetica-Bold reencodefont definefont pop
/KicadFont-Oblique /Helvetica-Oblique reencodefont definefont pop
/KicadFont-BoldOblique /Helvetica-BoldOblique reencodefont definefont pop
%%EndProlog
%%Page: 1 1
%%BeginPageSetup
gsave
0.0072 0.0072 scale
linemode1
82680 0 translate 90 rotate
39.3701 setlinewidth
%%EndPageSetup
0 0 0 setrgbcolor
0 0 0 setrgbcolor
39.3701 setlinewidth
newpath
75000 45180 moveto
75000 31680 lineto
stroke
0 0 0 setrgbcolor
newpath
50500 45180 moveto
75000 45180 lineto
stroke
0 0 0 setrgbcolor
newpath
50500 31680 moveto
50500 45180 lineto
stroke
0 0 0 setrgbcolor
newpath
75000 31680 moveto
50500 31680 lineto
stroke
0 0 0 setrgbcolor
59.0551 setlinewidth
newpath
60606.3 44172.1 moveto
63362.2 44172.1 lineto
stroke
0 0 0 setrgbcolor
newpath
63362.2 44172.1 moveto
63362.2 43187.9 lineto
stroke
0 0 0 setrgbcolor
newpath
63362.2 43187.9 moveto
60606.3 43187.9 lineto
stroke
0 0 0 setrgbcolor
newpath
60606.3 43187.9 moveto
60606.3 44172.1 lineto
stroke
0 0 0 setrgbcolor
newpath
69007.9 38786.3 moveto
69007.9 41542.2 lineto
stroke
0 0 0 setrgbcolor
newpath
69007.9 41542.2 moveto
69992.1 41542.2 lineto
stroke
0 0 0 setrgbcolor
newpath
69992.1 41542.2 moveto
69992.1 38786.3 lineto
stroke
0 0 0 setrgbcolor
newpath
69992.1 38786.3 moveto
69007.9 38786.3 lineto
stroke
0 0 0 setrgbcolor
newpath
68393.7 38187.9 moveto
65637.8 38187.9 lineto
stroke
0 0 0 setrgbcolor
newpath
65637.8 38187.9 moveto
65637.8 39172.1 lineto
stroke
0 0 0 setrgbcolor
newpath
65637.8 39172.1 moveto
68393.7 39172.1 lineto
stroke
0 0 0 setrgbcolor
newpath
68393.7 39172.1 moveto
68393.7 38187.9 lineto
stroke
0 0 0 setrgbcolor
newpath
57500 39680 moveto
57500 40180 lineto
stroke
0 0 0 setrgbcolor
newpath
57500 40180 moveto
58500 40180 lineto
stroke
0 0 0 setrgbcolor
newpath
58500 40180 moveto
58500 39680 lineto
stroke
0 0 0 setrgbcolor
newpath
57000 39680 moveto
57000 43680 lineto
stroke
0 0 0 setrgbcolor
newpath
57000 43680 moveto
59000 43680 lineto
stroke
0 0 0 setrgbcolor
newpath
59000 43680 moveto
59000 39680 lineto
stroke
0 0 0 setrgbcolor
newpath
59000 39680 moveto
57000 39680 lineto
stroke
0 0 0 setrgbcolor
newpath
58500 37180 moveto
58500 36680 lineto
stroke
0 0 0 setrgbcolor
newpath
58500 36680 moveto
57500 36680 lineto
stroke
0 0 0 setrgbcolor
newpath
57500 36680 moveto
57500 37180 lineto
stroke
0 0 0 setrgbcolor
newpath
59000 37180 moveto
59000 33180 lineto
stroke
0 0 0 setrgbcolor
newpath
59000 33180 moveto
57000 33180 lineto
stroke
0 0 0 setrgbcolor
newpath
57000 33180 moveto
57000 37180 lineto
stroke
0 0 0 setrgbcolor
newpath
57000 37180 moveto
59000 37180 lineto
stroke
0 0 0 setrgbcolor
newpath
50889.8 40680 moveto
50889.8 41290.2 lineto
stroke
0 0 0 setrgbcolor
newpath
50889.8 41290.2 moveto
52110.2 41290.2 lineto
stroke
0 0 0 setrgbcolor
newpath
52110.2 41290.2 moveto
52110.2 40680 lineto
stroke
0 0 0 setrgbcolor
newpath
52000 40180 moveto
52000 36180 lineto
stroke
0 0 0 setrgbcolor
newpath
52000 36180 moveto
51000 36180 lineto
stroke
0 0 0 setrgbcolor
newpath
51000 36180 moveto
51000 40180 lineto
stroke
0 0 0 setrgbcolor
newpath
52000 40180 moveto
51000 40180 lineto
stroke
0 0 0 setrgbcolor
newpath
62500 39680 moveto
60500 39680 lineto
stroke
0 0 0 setrgbcolor
newpath
60500 39680 moveto
60500 38680 lineto
stroke
0 0 0 setrgbcolor
newpath
60500 38680 moveto
62500 38680 lineto
stroke
0 0 0 setrgbcolor
newpath
63610.2 38569.8 moveto
63000 38569.8 lineto
stroke
0 0 0 setrgbcolor
newpath
62500 38680 moveto
62500 39680 lineto
stroke
0 0 0 setrgbcolor
newpath
63000 39790.2 moveto
63610.2 39790.2 lineto
stroke
0 0 0 setrgbcolor
newpath
63610.2 39790.2 moveto
63610.2 38569.8 lineto
stroke
0 0 0 setrgbcolor
newpath
72000 35680 moveto
72000 34680 lineto
stroke
0 0 0 setrgbcolor
newpath
72110.2 36790.2 moveto
72110.2 36180 lineto
stroke
0 0 0 setrgbcolor
newpath
72000 35680 moveto
71000 35680 lineto
stroke
0 0 0 setrgbcolor
newpath
70889.8 36180 moveto
70889.8 36790.2 lineto
stroke
0 0 0 setrgbcolor
newpath
70889.8 36790.2 moveto
72110.2 36790.2 lineto
stroke
0 0 0 setrgbcolor
newpath
71000 35680 moveto
71000 34680 lineto
stroke
0 0 0 setrgbcolor
newpath
71000 34680 moveto
72000 34680 lineto
stroke
0 0 0 setrgbcolor
newpath
69000 35680 moveto
69000 33680 lineto
stroke
0 0 0 setrgbcolor
newpath
69000 33680 moveto
70000 33680 lineto
stroke
0 0 0 setrgbcolor
newpath
70000 33680 moveto
70000 35680 lineto
stroke
0 0 0 setrgbcolor
newpath
70110.2 36790.2 moveto
70110.2 36180 lineto
stroke
0 0 0 setrgbcolor
newpath
70000 35680 moveto
69000 35680 lineto
stroke
0 0 0 setrgbcolor
newpath
68889.8 36180 moveto
68889.8 36790.2 lineto
stroke
0 0 0 setrgbcolor
newpath
68889.8 36790.2 moveto
70110.2 36790.2 lineto
stroke
0 0 0 setrgbcolor
newpath
53000 35680 moveto
53000 37680 lineto
stroke
0 0 0 setrgbcolor
newpath
53000 37680 moveto
54000 37680 lineto
stroke
0 0 0 setrgbcolor
newpath
54000 37680 moveto
54000 35680 lineto
stroke
0 0 0 setrgbcolor
newpath
54000 35680 moveto
53000 35680 lineto
stroke
0 0 0 setrgbcolor
newpath
53500 35680 moveto
53500 35180 lineto
stroke
0 0 0 setrgbcolor
newpath
53500 37680 moveto
53500 38180 lineto
stroke
0 0 0 setrgbcolor
newpath
64000 38180 moveto
64000 40180 lineto
stroke
0 0 0 setrgbcolor
newpath
64000 40180 moveto
65000 40180 lineto
stroke
0 0 0 setrgbcolor
newpath
65000 40180 moveto
65000 38180 lineto
stroke
0 0 0 setrgbcolor
newpath
65000 38180 moveto
64000 38180 lineto
stroke
0 0 0 setrgbcolor
newpath
64500 38180 moveto
64500 37680 lineto
stroke
0 0 0 setrgbcolor
newpath
64500 40180 moveto
64500 40680 lineto
stroke
0 0 0 setrgbcolor
newpath
61500 36180 moveto
61500 34180 lineto
stroke
0 0 0 setrgbcolor
newpath
61500 34180 moveto
60500 34180 lineto
stroke
0 0 0 setrgbcolor
newpath
60500 34180 moveto
60500 36180 lineto
stroke
0 0 0 setrgbcolor
newpath
60500 36180 moveto
61500 36180 lineto
stroke
0 0 0 setrgbcolor
newpath
61000 36180 moveto
61000 36680 lineto
stroke
0 0 0 setrgbcolor
newpath
61000 34180 moveto
61000 33680 lineto
stroke
0 0 0 setrgbcolor
newpath
73500 36180 moveto
73500 34180 lineto
stroke
0 0 0 setrgbcolor
newpath
73500 34180 moveto
72500 34180 lineto
stroke
0 0 0 setrgbcolor
newpath
72500 34180 moveto
72500 36180 lineto
stroke
0 0 0 setrgbcolor
newpath
72500 36180 moveto
73500 36180 lineto
stroke
0 0 0 setrgbcolor
newpath
73000 36180 moveto
73000 36680 lineto
stroke
0 0 0 setrgbcolor
newpath
73000 34180 moveto
73000 33680 lineto
stroke
0 0 0 setrgbcolor
newpath
66500 43680 moveto
66500 44680 lineto
stroke
0 0 0 setrgbcolor
newpath
66500 44680 moveto
71500 44680 lineto
stroke
0 0 0 setrgbcolor
newpath
71500 44680 moveto
71500 43680 lineto
stroke
0 0 0 setrgbcolor
newpath
71000 42180 moveto
71500 42180 lineto
stroke
0 0 0 setrgbcolor
newpath
71500 42180 moveto
71500 43680 lineto
stroke
0 0 0 setrgbcolor
newpath
66500 43680 moveto
66500 42180 lineto
stroke
0 0 0 setrgbcolor
newpath
66500 42180 moveto
71000 42180 lineto
stroke
0 0 0 setrgbcolor
newpath
66500 36680 moveto
66500 36180 lineto
stroke
0 0 0 setrgbcolor
newpath
66500 36180 moveto
65500 36180 lineto
stroke
0 0 0 setrgbcolor
newpath
65500 36180 moveto
65500 36680 lineto
stroke
0 0 0 setrgbcolor
newpath
67000 36680 moveto
67000 32680 lineto
stroke
0 0 0 setrgbcolor
newpath
67000 32680 moveto
65000 32680 lineto
stroke
0 0 0 setrgbcolor
newpath
65000 32680 moveto
65000 36680 lineto
stroke
0 0 0 setrgbcolor
newpath
65000 36680 moveto
67000 36680 lineto
stroke
0 0 0 setrgbcolor
newpath
55000 38680 moveto
55000 36680 lineto
stroke
0 0 0 setrgbcolor
newpath
55000 36680 moveto
54000 36680 lineto
stroke
0 0 0 setrgbcolor
newpath
54000 36680 moveto
54000 38680 lineto
stroke
0 0 0 setrgbcolor
newpath
54000 38680 moveto
55000 38680 lineto
stroke
0 0 0 setrgbcolor
newpath
54500 38680 moveto
54500 39180 lineto
stroke
0 0 0 setrgbcolor
newpath
54500 36680 moveto
54500 36180 lineto
stroke
0 0 0 setrgbcolor
73000 43180 900 cir0
0 0 0 setrgbcolor
52500 43180 900 cir0
0 0 0 setrgbcolor
0 0 0 setrgbcolor
0 0 0 setrgbcolor
newpath
61918.6 44523.6 moveto
61899.9 44504.9 lineto
61843.6 44486.1 lineto
61806.1 44486.1 lineto
61749.9 44504.9 lineto
61712.4 44542.4 lineto
61693.7 44579.9 lineto
61674.9 44654.9 lineto
61674.9 44711.1 lineto
61693.7 44786.1 lineto
61712.4 44823.6 lineto
61749.9 44861.1 lineto
61806.1 44879.8 lineto
61843.6 44879.8 lineto
61899.9 44861.1 lineto
61918.6 44842.4 lineto
stroke
newpath
62293.6 44486.1 moveto
62068.6 44486.1 lineto
stroke
newpath
62181.1 44486.1 moveto
62181.1 44879.8 lineto
62143.6 44823.6 lineto
62106.1 44786.1 lineto
62068.6 44767.4 lineto
stroke
0 0 0 setrgbcolor
0 0 0 setrgbcolor
0 0 0 setrgbcolor
newpath
68656.4 40098.6 moveto
68675.1 40079.9 lineto
68693.9 40023.6 lineto
68693.9 39986.1 lineto
68675.1 39929.9 lineto
68637.6 39892.4 lineto
68600.1 39873.7 lineto
68525.1 39854.9 lineto
68468.9 39854.9 lineto
68393.9 39873.7 lineto
68356.4 39892.4 lineto
68318.9 39929.9 lineto
68300.1 39986.1 lineto
68300.1 40023.6 lineto
68318.9 40079.9 lineto
68337.6 40098.6 lineto
stroke
newpath
68337.6 40248.6 moveto
68318.9 40267.4 lineto
68300.1 40304.9 lineto
68300.1 40398.6 lineto
68318.9 40436.1 lineto
68337.6 40454.8 lineto
68375.1 40473.6 lineto
68412.6 40473.6 lineto
68468.9 40454.8 lineto
68693.9 40229.9 lineto
68693.9 40473.6 lineto
stroke
0 0 0 setrgbcolor
0 0 0 setrgbcolor
0 0 0 setrgbcolor
newpath
66950.1 37555.1 moveto
66931.4 37536.4 lineto
66875.1 37517.6 lineto
66837.6 37517.6 lineto
66781.4 37536.4 lineto
66743.9 37573.9 lineto
66725.2 37611.4 lineto
66706.4 37686.4 lineto
66706.4 37742.6 lineto
66725.2 37817.6 lineto
66743.9 37855.1 lineto
66781.4 37892.6 lineto
66837.6 37911.3 lineto
66875.1 37911.3 lineto
66931.4 37892.6 lineto
66950.1 37873.9 lineto
stroke
newpath
67081.4 37911.3 moveto
67325.1 37911.3 lineto
67193.9 37761.4 lineto
67250.1 37761.4 lineto
67287.6 37742.6 lineto
67306.3 37723.9 lineto
67325.1 37686.4 lineto
67325.1 37592.6 lineto
67306.3 37555.1 lineto
67287.6 37536.4 lineto
67250.1 37517.6 lineto
67137.6 37517.6 lineto
67100.1 37536.4 lineto
67081.4 37555.1 lineto
stroke
0 0 0 setrgbcolor
0 0 0 setrgbcolor
0 0 0 setrgbcolor
newpath
57615.7 39001.9 moveto
57615.7 39395.6 lineto
stroke
newpath
58028.1 39039.4 moveto
58009.4 39020.6 lineto
57953.1 39001.9 lineto
57915.6 39001.9 lineto
57859.4 39020.6 lineto
57821.9 39058.1 lineto
57803.1 39095.6 lineto
57784.4 39170.6 lineto
57784.4 39226.9 lineto
57803.1 39301.9 lineto
57821.9 39339.4 lineto
57859.4 39376.9 lineto
57915.6 39395.6 lineto
57953.1 39395.6 lineto
58009.4 39376.9 lineto
58028.1 39358.1 lineto
stroke
newpath
58403.1 39001.9 moveto
58178.1 39001.9 lineto
stroke
newpath
58290.6 39001.9 moveto
58290.6 39395.6 lineto
58253.1 39339.4 lineto
58215.6 39301.9 lineto
58178.1 39283.1 lineto
stroke
0 0 0 setrgbcolor
0 0 0 setrgbcolor
0 0 0 setrgbcolor
newpath
57615.7 37501.9 moveto
57615.7 37895.6 lineto
stroke
newpath
58028.1 37539.4 moveto
58009.4 37520.6 lineto
57953.1 37501.9 lineto
57915.6 37501.9 lineto
57859.4 37520.6 lineto
57821.9 37558.1 lineto
57803.1 37595.6 lineto
57784.4 37670.6 lineto
57784.4 37726.9 lineto
57803.1 37801.9 lineto
57821.9 37839.4 lineto
57859.4 37876.9 lineto
57915.6 37895.6 lineto
57953.1 37895.6 lineto
58009.4 37876.9 lineto
58028.1 37858.1 lineto
stroke
newpath
58178.1 37858.1 moveto
58196.9 37876.9 lineto
58234.3 37895.6 lineto
58328.1 37895.6 lineto
58365.6 37876.9 lineto
58384.3 37858.1 lineto
58403.1 37820.6 lineto
58403.1 37783.1 lineto
58384.3 37726.9 lineto
58159.4 37501.9 lineto
58403.1 37501.9 lineto
stroke
0 0 0 setrgbcolor
0 0 0 setrgbcolor
0 0 0 setrgbcolor
newpath
51209.4 42509.8 moveto
51209.4 42903.5 lineto
51359.4 42903.5 lineto
51396.9 42884.7 lineto
51415.6 42866 lineto
51434.4 42828.5 lineto
51434.4 42772.2 lineto
51415.6 42734.7 lineto
51396.9 42716 lineto
51359.4 42697.2 lineto
51209.4 42697.2 lineto
stroke
newpath
51809.3 42509.8 moveto
51584.4 42509.8 lineto
stroke
newpath
51696.9 42509.8 moveto
51696.9 42903.5 lineto
51659.4 42847.2 lineto
51621.9 42809.7 lineto
51584.4 42791 lineto
stroke
0 0 0 setrgbcolor
0 0 0 setrgbcolor
0 0 0 setrgbcolor
newpath
65186 38889.4 moveto
64792.3 38889.4 lineto
64792.3 39039.4 lineto
64811 39076.9 lineto
64829.8 39095.6 lineto
64867.3 39114.4 lineto
64923.5 39114.4 lineto
64961 39095.6 lineto
64979.8 39076.9 lineto
64998.5 39039.4 lineto
64998.5 38889.4 lineto
stroke
newpath
64829.8 39264.4 moveto
64811 39283.1 lineto
64792.3 39320.6 lineto
64792.3 39414.3 lineto
64811 39451.8 lineto
64829.8 39470.6 lineto
64867.3 39489.3 lineto
64904.8 39489.3 lineto
64961 39470.6 lineto
65186 39245.6 lineto
65186 39489.3 lineto
stroke
0 0 0 setrgbcolor
0 0 0 setrgbcolor
0 0 0 setrgbcolor
newpath
71209.4 38009.8 moveto
71209.4 38403.5 lineto
71359.4 38403.5 lineto
71396.9 38384.7 lineto
71415.6 38366 lineto
71434.4 38328.5 lineto
71434.4 38272.2 lineto
71415.6 38234.7 lineto
71396.9 38216 lineto
71359.4 38197.2 lineto
71209.4 38197.2 lineto
stroke
newpath
71565.6 38403.5 moveto
71809.3 38403.5 lineto
71678.1 38253.5 lineto
71734.3 38253.5 lineto
71771.8 38234.7 lineto
71790.6 38216 lineto
71809.3 38178.5 lineto
71809.3 38084.8 lineto
71790.6 38047.3 lineto
71771.8 38028.5 lineto
71734.3 38009.8 lineto
71621.9 38009.8 lineto
71584.4 38028.5 lineto
71565.6 38047.3 lineto
stroke
0 0 0 setrgbcolor
0 0 0 setrgbcolor
0 0 0 setrgbcolor
newpath
69209.4 38009.8 moveto
69209.4 38403.5 lineto
69359.4 38403.5 lineto
69396.9 38384.7 lineto
69415.6 38366 lineto
69434.4 38328.5 lineto
69434.4 38272.2 lineto
69415.6 38234.7 lineto
69396.9 38216 lineto
69359.4 38197.2 lineto
69209.4 38197.2 lineto
stroke
newpath
69771.8 38272.2 moveto
69771.8 38009.8 lineto
stroke
newpath
69678.1 38422.2 moveto
69584.4 38141 lineto
69828.1 38141 lineto
stroke
0 0 0 setrgbcolor
0 0 0 setrgbcolor
0 0 0 setrgbcolor
newpath
52300.1 36712.4 moveto
52112.6 36581.1 lineto
stroke
newpath
52300.1 36487.4 moveto
51906.4 36487.4 lineto
51906.4 36637.4 lineto
51925.1 36674.9 lineto
51943.9 36693.6 lineto
51981.4 36712.4 lineto
52037.6 36712.4 lineto
52075.1 36693.6 lineto
52093.9 36674.9 lineto
52112.6 36637.4 lineto
52112.6 36487.4 lineto
stroke
newpath
51943.9 36862.4 moveto
51925.1 36881.1 lineto
51906.4 36918.6 lineto
51906.4 37012.3 lineto
51925.1 37049.8 lineto
51943.9 37068.6 lineto
51981.4 37087.3 lineto
52018.9 37087.3 lineto
52075.1 37068.6 lineto
52300.1 36843.6 lineto
52300.1 37087.3 lineto
stroke
0 0 0 setrgbcolor
0 0 0 setrgbcolor
0 0 0 setrgbcolor
newpath
63300.1 39212.4 moveto
63112.6 39081.1 lineto
stroke
newpath
63300.1 38987.4 moveto
62906.4 38987.4 lineto
62906.4 39137.4 lineto
62925.1 39174.9 lineto
62943.9 39193.6 lineto
62981.4 39212.4 lineto
63037.6 39212.4 lineto
63075.1 39193.6 lineto
63093.9 39174.9 lineto
63112.6 39137.4 lineto
63112.6 38987.4 lineto
stroke
newpath
62906.4 39343.6 moveto
62906.4 39587.3 lineto
63056.4 39456.1 lineto
63056.4 39512.3 lineto
63075.1 39549.8 lineto
63093.9 39568.6 lineto
63131.4 39587.3 lineto
63225.1 39587.3 lineto
63262.6 39568.6 lineto
63281.4 39549.8 lineto
63300.1 39512.3 lineto
63300.1 39399.9 lineto
63281.4 39362.4 lineto
63262.6 39343.6 lineto
stroke
0 0 0 setrgbcolor
0 0 0 setrgbcolor
0 0 0 setrgbcolor
newpath
62556.1 35016.4 moveto
62368.6 34885.1 lineto
stroke
newpath
62556.1 34791.4 moveto
62162.4 34791.4 lineto
62162.4 34941.4 lineto
62181.1 34978.9 lineto
62199.9 34997.6 lineto
62237.4 35016.4 lineto
62293.6 35016.4 lineto
62331.1 34997.6 lineto
62349.9 34978.9 lineto
62368.6 34941.4 lineto
62368.6 34791.4 lineto
stroke
newpath
62293.6 35353.8 moveto
62556.1 35353.8 lineto
stroke
newpath
62143.7 35260.1 moveto
62424.9 35166.4 lineto
62424.9 35410.1 lineto
stroke
0 0 0 setrgbcolor
0 0 0 setrgbcolor
0 0 0 setrgbcolor
newpath
74556.1 35016.4 moveto
74368.6 34885.1 lineto
stroke
newpath
74556.1 34791.4 moveto
74162.4 34791.4 lineto
74162.4 34941.4 lineto
74181.1 34978.9 lineto
74199.9 34997.6 lineto
74237.4 35016.4 lineto
74293.6 35016.4 lineto
74331.1 34997.6 lineto
74349.9 34978.9 lineto
74368.6 34941.4 lineto
74368.6 34791.4 lineto
stroke
newpath
74162.4 35372.6 moveto
74162.4 35185.1 lineto
74349.9 35166.4 lineto
74331.1 35185.1 lineto
74312.4 35222.6 lineto
74312.4 35316.3 lineto
74331.1 35353.8 lineto
74349.9 35372.6 lineto
74387.4 35391.3 lineto
74481.1 35391.3 lineto
74518.6 35372.6 lineto
74537.4 35353.8 lineto
74556.1 35316.3 lineto
74556.1 35222.6 lineto
74537.4 35185.1 lineto
74518.6 35166.4 lineto
stroke
0 0 0 setrgbcolor
0 0 0 setrgbcolor
0 0 0 setrgbcolor
newpath
67550.1 45503.4 moveto
67550.1 45025.3 lineto
67578.2 44969.1 lineto
67606.3 44941 lineto
67662.5 44912.8 lineto
67775 44912.8 lineto
67831.3 44941 lineto
67859.4 44969.1 lineto
67887.5 45025.3 lineto
67887.5 45503.4 lineto
stroke
newpath
68478.1 44912.8 moveto
68140.6 44912.8 lineto
stroke
newpath
68309.3 44912.8 moveto
68309.3 45503.4 lineto
68253.1 45419 lineto
68196.9 45362.8 lineto
68140.6 45334.7 lineto
stroke
0 0 0 setrgbcolor
0 0 0 setrgbcolor
0 0 0 setrgbcolor
newpath
65700 37395.6 moveto
65700 37076.9 lineto
65718.8 37039.4 lineto
65737.5 37020.6 lineto
65775 37001.9 lineto
65850 37001.9 lineto
65887.5 37020.6 lineto
65906.3 37039.4 lineto
65925 37076.9 lineto
65925 37395.6 lineto
stroke
newpath
66093.7 37358.1 moveto
66112.5 37376.9 lineto
66150 37395.6 lineto
66243.7 37395.6 lineto
66281.2 37376.9 lineto
66300 37358.1 lineto
66318.7 37320.6 lineto
66318.7 37283.1 lineto
66300 37226.9 lineto
66075 37001.9 lineto
66318.7 37001.9 lineto
stroke
0 0 0 setrgbcolor
0 0 0 setrgbcolor
0 0 0 setrgbcolor
newpath
56056.1 37516.4 moveto
55868.6 37385.1 lineto
stroke
newpath
56056.1 37291.4 moveto
55662.4 37291.4 lineto
55662.4 37441.4 lineto
55681.1 37478.9 lineto
55699.9 37497.6 lineto
55737.4 37516.4 lineto
55793.6 37516.4 lineto
55831.1 37497.6 lineto
55849.9 37478.9 lineto
55868.6 37441.4 lineto
55868.6 37291.4 lineto
stroke
newpath
56056.1 37891.3 moveto
56056.1 37666.4 lineto
stroke
newpath
56056.1 37778.9 moveto
55662.4 37778.9 lineto
55718.6 37741.4 lineto
55756.1 37703.9 lineto
55774.9 37666.4 lineto
stroke
0 0 0 setrgbcolor
0 0 0 setrgbcolor
0 0 0 setrgbcolor
newpath
72475.1 44201.9 moveto
72343.8 44389.4 lineto
stroke
newpath
72250.1 44201.9 moveto
72250.1 44595.6 lineto
72400.1 44595.6 lineto
72437.6 44576.9 lineto
72456.3 44558.1 lineto
72475.1 44520.6 lineto
72475.1 44464.4 lineto
72456.3 44426.9 lineto
72437.6 44408.1 lineto
72400.1 44389.4 lineto
72250.1 44389.4 lineto
stroke
newpath
72643.8 44408.1 moveto
72775 44408.1 lineto
stroke
newpath
72831.3 44201.9 moveto
72643.8 44201.9 lineto
72643.8 44595.6 lineto
72831.3 44595.6 lineto
stroke
newpath
73131.2 44408.1 moveto
73000 44408.1 lineto
stroke
newpath
73000 44201.9 moveto
73000 44595.6 lineto
73187.5 44595.6 lineto
stroke
newpath
73393.7 44595.6 moveto
73393.7 44501.9 lineto
stroke
newpath
73300 44539.4 moveto
73393.7 44501.9 lineto
73487.4 44539.4 lineto
stroke
newpath
73337.5 44426.9 moveto
73393.7 44501.9 lineto
73449.9 44426.9 lineto
stroke
newpath
73693.7 44595.6 moveto
73693.7 44501.9 lineto
stroke
newpath
73599.9 44539.4 moveto
73693.7 44501.9 lineto
73787.4 44539.4 lineto
stroke
newpath
73637.4 44426.9 moveto
73693.7 44501.9 lineto
73749.9 44426.9 lineto
stroke
0 0 0 setrgbcolor
0 0 0 setrgbcolor
0 0 0 setrgbcolor
newpath
51975.1 44201.9 moveto
51843.8 44389.4 lineto
stroke
newpath
51750.1 44201.9 moveto
51750.1 44595.6 lineto
51900.1 44595.6 lineto
51937.6 44576.9 lineto
51956.3 44558.1 lineto
51975.1 44520.6 lineto
51975.1 44464.4 lineto
51956.3 44426.9 lineto
51937.6 44408.1 lineto
51900.1 44389.4 lineto
51750.1 44389.4 lineto
stroke
newpath
52143.8 44408.1 moveto
52275 44408.1 lineto
stroke
newpath
52331.3 44201.9 moveto
52143.8 44201.9 lineto
52143.8 44595.6 lineto
52331.3 44595.6 lineto
stroke
newpath
52631.2 44408.1 moveto
52500 44408.1 lineto
stroke
newpath
52500 44201.9 moveto
52500 44595.6 lineto
52687.5 44595.6 lineto
stroke
newpath
52893.7 44595.6 moveto
52893.7 44501.9 lineto
stroke
newpath
52800 44539.4 moveto
52893.7 44501.9 lineto
52987.4 44539.4 lineto
stroke
newpath
52837.5 44426.9 moveto
52893.7 44501.9 lineto
52949.9 44426.9 lineto
stroke
newpath
53193.7 44595.6 moveto
53193.7 44501.9 lineto
stroke
newpath
53099.9 44539.4 moveto
53193.7 44501.9 lineto
53287.4 44539.4 lineto
stroke
newpath
53137.4 44426.9 moveto
53193.7 44501.9 lineto
53249.9 44426.9 lineto
stroke
showpage
grestore
%%EOF
